Statistical Analysis Example 1
…
## Decision Tree Model Specification (regression)
## 
## Main Arguments:
##   cost_complexity = tune()
##   tree_depth = tune()
## 
## Computational engine: rpart

#Tuning grid specification
tree_grid <- grid_regular(cost_complexity(),
                          tree_depth(),
                          levels = 5)
tree_grid

## # A tibble: 25 × 2
##    cost_complexity tree_depth
##              <dbl>      <int>
##  1    0.0000000001          1
##  2    0.0000000178          1
##  3    0.00000316            1
##  4    0.000562              1
##  5    0.1                   1
##  6    0.0000000001          4
##  7    0.0000000178          4
##  8    0.00000316            4
##  9    0.000562              4
## 10    0.1                   4
## # … with 15 more rows
…
## ! Fold1, Repeat5: internal: A correlation computation is required, but `estimate` is const...

## ! Fold2, Repeat5: internal: A correlation computation is required, but `estimate` is const...

## ! Fold3, Repeat5: internal: A correlation computation is required, but `estimate` is const...

## ! Fold4, Repeat5: internal: A correlation computation is required, but `estimate` is const...

## ! Fold5, Repeat5: internal: A correlation computation is required, but `estimate` is const...

#Collect the metrics (rmse) from the fit model
tree_res %>%
  collect_metrics()

## # A tibble: 50 × 8
##    cost_complexity tree_depth .metric .estimator     mean     n  std_err .config
##              <dbl>      <int> <chr>   <chr>         <dbl> <int>    <dbl> <chr>  
##  1    0.0000000001          1 rmse    standard     1.19      25  0.0181  Prepro…
##  2    0.0000000001          1 rsq     standard     0.0361    25  0.00422 Prepro…
##  3    0.0000000178          1 rmse    standard     1.19      25  0.0181  Prepro…
##  4    0.0000000178          1 rsq     standard     0.0361    25  0.00422 Prepro…
##  5    0.00000316            1 rmse    standard     1.19      25  0.0181  Prepro…
##  6    0.00000316            1 rsq     standard     0.0361    25  0.00422 Prepro…
##  7    0.000562              1 rmse    standard     1.19      25  0.0181  Prepro…
##  8    0.000562              1 rsq     standard     0.0361    25  0.00422 Prepro…
##  9    0.1                   1 rmse    standard     1.21      25  0.0177  Prepro…
## 10    0.1                   1 rsq     standard   NaN          0 NA       Prepro…
## # … with 40 more rows
…
#Tuning Grid Specification
lasso_grid <- tibble(penalty = 10^seq(-4, -1, length.out = 30))

#Training and tuning the model
lasso_res <- lasso_wf %>% tune_grid(
  resamples = folds, grid = lasso_grid, 
  control = control_grid(verbose = FALSE, save_pred = TRUE),
  metrics = metric_set(rmse))

collect_metrics(lasso_res)

## # A tibble: 30 × 7
##     penalty .metric .estimator  mean     n std_err .config              
##       <dbl> <chr>   <chr>      <dbl> <int>   <dbl> <chr>                
##  1 0.0001   rmse    standard    1.18    25  0.0167 Preprocessor1_Model01
##  2 0.000127 rmse    standard    1.18    25  0.0167 Preprocessor1_Model02
##  3 0.000161 rmse    standard    1.18    25  0.0167 Preprocessor1_Model03
##  4 0.000204 rmse    standard    1.18    25  0.0167 Preprocessor1_Model04
##  5 0.000259 rmse    standard    1.18    25  0.0167 Preprocessor1_Model05
##  6 0.000329 rmse    standard    1.18    25  0.0167 Preprocessor1_Model06
##  7 0.000418 rmse    standard    1.18    25  0.0167 Preprocessor1_Model07
##  8 0.000530 rmse    standard    1.18    25  0.0167 Preprocessor1_Model08
##  9 0.000672 rmse    standard    1.18    25  0.0167 Preprocessor1_Model09
## 10 0.000853 rmse    standard    1.18    25  0.0167 Preprocessor1_Model10
## # … with 20 more rows
…
#Tuning Model and Running It
rf_res <- 
  rf_wf %>% 
  tune_grid(resamples = folds, grid = 25,
            control_grid(save_pred = TRUE),
            metrics = metric_set(rmse))

## Warning: The `...` are not used in this function but one or more objects were
## passed: ''

## i Creating pre-processing data to finalize unknown parameter: mtry

collect_metrics(rf_res)

## # A tibble: 25 × 8
##     mtry min_n .metric .estimator  mean     n std_err .config              
##    <int> <int> <chr>   <chr>      <dbl> <int>   <dbl> <chr>                
##  1    20    26 rmse    standard    1.19    25  0.0167 Preprocessor1_Model01
##  2     4    38 rmse    standard    1.16    25  0.0168 Preprocessor1_Model02
##  3    19    34 rmse    standard    1.18    25  0.0165 Preprocessor1_Model03
##  4    17     4 rmse    standard    1.21    25  0.0160 Preprocessor1_Model04
##  5    26    17 rmse    standard    1.20    25  0.0166 Preprocessor1_Model05
##  6     5    10 rmse    standard    1.17    25  0.0163 Preprocessor1_Model06
##  7    25    32 rmse    standard    1.18    25  0.0168 Preprocessor1_Model07
##  8    21    26 rmse    standard    1.19    25  0.0167 Preprocessor1_Model08
##  9    11    30 rmse    standard    1.17    25  0.0167 Preprocessor1_Model09
## 10     8     8 rmse    standard    1.18    25  0.0163 Preprocessor1_Model10
## # … with 15 more rows
…
